…
    ## Warning: 308308 parsing failures.
    ##  row         col           expected actual                                               file
    ## 3145 adminAction 1/0/T/F/TRUE/FALSE     21 'data/SCDB_Legacy_05_justiceCentered_Citation.csv'
    ## 3146 adminAction 1/0/T/F/TRUE/FALSE     21 'data/SCDB_Legacy_05_justiceCentered_Citation.csv'
    ## 3147 adminAction 1/0/T/F/TRUE/FALSE     21 'data/SCDB_Legacy_05_justiceCentered_Citation.csv'
    ## 3148 adminAction 1/0/T/F/TRUE/FALSE     21 'data/SCDB_Legacy_05_justiceCentered_Citation.csv'
    ## 3149 adminAction 1/0/T/F/TRUE/FALSE     21 'data/SCDB_Legacy_05_justiceCentered_Citation.csv'
    ## .... ........... .................. ...... ..................................................
    ## See problems(...) for more details.

``` r
scdbv_mod
```

    ## # A tibble: 80,269 x 61
    ##    caseId docketId caseIssuesId voteId dateDecision decisionType usCite
    ##    <chr>  <chr>    <chr>        <chr>  <chr>               <dbl> <chr> 
    ##  1 1946-~ 1946-00~ 1946-001-01~ 1946-~ 11/18/1946              1 329 U~
    ##  2 1946-~ 1946-00~ 1946-001-01~ 1946-~ 11/18/1946              1 329 U~
    ##  3 1946-~ 1946-00~ 1946-001-01~ 1946-~ 11/18/1946              1 329 U~
    ##  4 1946-~ 1946-00~ 1946-001-01~ 1946-~ 11/18/1946              1 329 U~
    ##  5 1946-~ 1946-00~ 1946-001-01~ 1946-~ 11/18/1946              1 329 U~
    ##  6 1946-~ 1946-00~ 1946-001-01~ 1946-~ 11/18/1946              1 329 U~
    ##  7 1946-~ 1946-00~ 1946-001-01~ 1946-~ 11/18/1946              1 329 U~
    ##  8 1946-~ 1946-00~ 1946-001-01~ 1946-~ 11/18/1946              1 329 U~
    ##  9 1946-~ 1946-00~ 1946-001-01~ 1946-~ 11/18/1946              1 329 U~
    ## 10 1946-~ 1946-00~ 1946-002-01~ 1946-~ 11/18/1946              1 329 U~
    ## # ... with 80,259 more rows, and 54 more variables: sctCite <chr>,
    ## #   ledCite <chr>, lexisCite <chr>, term <dbl>, naturalCourt <dbl>,
    ## #   chief <chr>, docket <dbl>, caseName <chr>, dateArgument <chr>,
    ## #   dateRearg <chr>, petitioner <dbl>, petitionerState <dbl>,
    ## #   respondent <dbl>, respondentState <dbl>, jurisdiction <dbl>,
    ## #   adminAction <dbl>, adminActionState <dbl>, threeJudgeFdc <dbl>,
    ## #   caseOrigin <dbl>, caseOriginState <dbl>, caseSource <dbl>,
    ## #   caseSourceState <dbl>, lcDisagreement <dbl>, certReason <dbl>,
    ## #   lcDisposition <dbl>, lcDispositionDirection <dbl>,
…
``` r
scdbv_leg
```

    ## # A tibble: 172,213 x 61
    ##    caseId docketId caseIssuesId voteId dateDecision decisionType usCite
    ##    <chr>  <chr>    <chr>        <chr>  <chr>               <dbl> <chr> 
    ##  1 1791-~ 1791-00~ 1791-001-01~ 1791-~ 8/3/1791                6 2 U.S~
    ##  2 1791-~ 1791-00~ 1791-001-01~ 1791-~ 8/3/1791                6 2 U.S~
    ##  3 1791-~ 1791-00~ 1791-001-01~ 1791-~ 8/3/1791                6 2 U.S~
    ##  4 1791-~ 1791-00~ 1791-001-01~ 1791-~ 8/3/1791                6 2 U.S~
    ##  5 1791-~ 1791-00~ 1791-001-01~ 1791-~ 8/3/1791                6 2 U.S~
    ##  6 1791-~ 1791-00~ 1791-002-01~ 1791-~ 8/3/1791                2 2 U.S~
    ##  7 1791-~ 1791-00~ 1791-002-01~ 1791-~ 8/3/1791                2 2 U.S~
    ##  8 1791-~ 1791-00~ 1791-002-01~ 1791-~ 8/3/1791                2 2 U.S~
    ##  9 1791-~ 1791-00~ 1791-002-01~ 1791-~ 8/3/1791                2 2 U.S~
    ## 10 1791-~ 1791-00~ 1791-002-01~ 1791-~ 8/3/1791                2 2 U.S~
    ## # ... with 172,203 more rows, and 54 more variables: sctCite <lgl>,
    ## #   ledCite <chr>, lexisCite <chr>, term <dbl>, naturalCourt <dbl>,
    ## #   chief <chr>, docket <lgl>, caseName <chr>, dateArgument <chr>,
    ## #   dateRearg <chr>, petitioner <dbl>, petitionerState <dbl>,
    ## #   respondent <dbl>, respondentState <dbl>, jurisdiction <dbl>,
    ## #   adminAction <lgl>, adminActionState <lgl>, threeJudgeFdc <dbl>,
    ## #   caseOrigin <dbl>, caseOriginState <dbl>, caseSource <dbl>,
    ## #   caseSourceState <dbl>, lcDisagreement <dbl>, certReason <dbl>,
    ## #   lcDisposition <dbl>, lcDispositionDirection <dbl>,
…
## Recode variables as you find necessary

?????????????????????????????????????????????????

``` r
#select variables for analysis purpose 
scdbv_select <- scdbv%>% 
  select(caseIssuesId, term ,justice, justiceName, decisionDirection, majVotes, minVotes, majority, chief, dateDecision, direction)

scdbv_select
```

    ## # A tibble: 252,482 x 11
    ##    caseIssuesId  term justice justiceName decisionDirecti~ majVotes
    ##    <chr>        <dbl>   <dbl> <chr>                  <dbl>    <dbl>
    ##  1 1791-001-01~  1791       1 JJay                       1        5
    ##  2 1791-001-01~  1791       3 WCushing                   1        5
    ##  3 1791-001-01~  1791       4 JWilson                    1        5
    ##  4 1791-001-01~  1791       5 JBlair                     1        5
    ##  5 1791-001-01~  1791       6 JIredell                   1        5
    ##  6 1791-002-01~  1791       1 JJay                       2        5
    ##  7 1791-002-01~  1791       3 WCushing                   2        5
    ##  8 1791-002-01~  1791       4 JWilson                    2        5
    ##  9 1791-002-01~  1791       5 JBlair                     2        5
    ## 10 1791-002-01~  1791       6 JIredell                   2        5
    ## # ... with 252,472 more rows, and 5 more variables: minVotes <dbl>,
    ## #   majority <dbl>, chief <chr>, dateDecision <chr>, direction <dbl>
…
